StudentNoteBook
…
## # A tibble: 1 x 6
##   country continent  year lifeExp        pop gdpPercap
##   <fct>   <fct>     <int>   <dbl>      <int>     <dbl>
## 1 China   Asia       2002    72.0 1280400000     3119.

After filter we learned about arrange for the Gapminder. If we want to complete this code to have the filter for 1957 and the dataset arranged descending for population.

# Filter for the year 1957, 
#  then arrange in descending order of population

gapminder %>%
filter( year == "1957" ) %>%
arrange(desc(pop))

## # A tibble: 142 x 6
##    country        continent  year lifeExp       pop gdpPercap
##    <fct>          <fct>     <int>   <dbl>     <int>     <dbl>
##  1 China          Asia       1957    50.5 637408000      576.
##  2 India          Asia       1957    40.2 409000000      590.
##  3 United States  Americas   1957    69.5 171984000    14847.
##  4 Japan          Asia       1957    65.5  91563009     4318.
##  5 Indonesia      Asia       1957    39.9  90124000      859.
##  6 Germany        Europe     1957    69.1  71019069    10188.
##  7 Brazil         Americas   1957    53.3  65551171     2487.
##  8 United Kingdom Europe     1957    70.4  51430000    11283.
##  9 Bangladesh     Asia       1957    39.3  51365468      662.
## 10 Italy          Europe     1957    67.8  49182000     6249.
## # ... with 132 more rows

finally we can combine this with a mutate, In this exercise, youll combine all three of the verbs youve learned in this chapter, to find the countries from high to low life expectancy in months, for the year 2002. Complete the code below:

# Filter for the year 2002
# mutate the life expextency to represent months instead of years
# and arrange the gapminder dataset with life expectancy in months from high to low

gapminder %>%
filter(year == "2002") %>%
mutate(lifeExpMonths = 12 * lifeExp ) %>%
arrange( desc(lifeExpMonths) )

## # A tibble: 142 x 7
##    country         continent  year lifeExp      pop gdpPercap lifeExpMonths
##    <fct>           <fct>     <int>   <dbl>    <int>     <dbl>         <dbl>
##  1 Japan           Asia       2002    82     1.27e8    28605.          984 
##  2 Hong Kong, Chi~ Asia       2002    81.5   6.76e6    30209.          978.
##  3 Switzerland     Europe     2002    80.6   7.36e6    34481.          967.
##  4 Iceland         Europe     2002    80.5   2.88e5    31163.          966 
##  5 Australia       Oceania    2002    80.4   1.95e7    30688.          964.
##  6 Italy           Europe     2002    80.2   5.79e7    27968.          963.
##  7 Sweden          Europe     2002    80.0   8.95e6    29342.          960.
##  8 Spain           Europe     2002    79.8   4.02e7    24835.          957.
##  9 Canada          Americas   2002    79.8   3.19e7    33329.          957.
## 10 Israel          Asia       2002    79.7   6.03e6    21906.          956.
## # ... with 132 more rows
…
#If we want to see the loaded data set, we can use the following two options:
#View(bakeoff)
#str(bakeoff)

view(bakeoff)

Within the CSV that we have downloaded, some of the entries for showstopper are considered non applicable (na). To find all the entries that are NA we can use the filter option. Complete the filter argument for the bakeoff data to show all na for showstopper.

# Filter rows where showstopper is NA 
bakeoff %>%
filter(is.na(showstopper))

## # A tibble: 21 x 10
##    series episode baker signature technical showstopper result uk_airdate
##     <dbl>   <dbl> <chr> <chr>         <dbl> <chr>       <chr>  <date>    
##  1      1       1 Edd   Caramel ~         1 <NA>        IN     2010-08-17
##  2      1       1 Jasm~ Fresh Ma~        NA <NA>        IN     2010-08-17
##  3      1       6 Mira~ Lemon Cu~        NA <NA>        RUNNE~ 2010-09-21
##  4      2       1 Ian   Apple an~        10 <NA>        IN     2011-08-16
##  5      2       1 Jason "Lemon M~         6 <NA>        IN     2011-08-16
##  6      2       1 Urva~ Cherry B~         7 <NA>        IN     2011-08-16
##  7      2       1 Yasm~ Cardamom~         5 <NA>        IN     2011-08-16
##  8      2       1 Holly "Cherry ~         1 <NA>        SB     2011-08-16
##  9      2       2 Ben   Chorizo,~         1 <NA>        IN     2011-08-23
## 10      2       2 Ian   "Stilton~         2 <NA>        IN     2011-08-23
## # ... with 11 more rows, and 2 more variables: us_season <dbl>,
## #   us_airdate <date>
…
We want to find the number of episodes per season, to get this we need to do two steps: first we make an overview of the count of series and episodes. You can use the same command as we used in the previous assignment, though now for the series and episodes.

bakeoff %>% 
 count( series ,episode ) 

## # A tibble: 74 x 3
##    series episode     n
##     <dbl>   <dbl> <int>
##  1      1       1    10
##  2      1       2     8
##  3      1       3     6
##  4      1       4     5
##  5      1       5     4
##  6      1       6     3
##  7      2       1    12
##  8      2       2    11
##  9      2       3    10
## 10      2       4     8
## # ... with 64 more rows
…
